# MagicaVoxel @ Ephtracy

# group
g Tower

# material
mtllib Tower.mtl
usemtl palette

# normals
vn -1 0 0
vn 1 0 0
vn 0 0 1
vn 0 0 -1
vn 0 -1 0
vn 0 1 0

# texcoords
vt 0.943359 0.5
vt 0.951172 0.5
vt 0.955078 0.5
vt 0.958984 0.5
vt 0.982422 0.5
vt 0.990234 0.5

# verts
v -5 0 5
v -5 0 -5
v -5 1 5
v -5 1 1
v -5 1 -0
v -5 1 -1
v -5 1 -2
v -5 1 -5
v -5 2 -0
v -5 2 -1
v -5 3 -0
v -5 3 -1
v -5 4 -0
v -5 4 -1
v -5 5 -0
v -5 5 -1
v -5 6 -0
v -5 6 -1
v -5 7 -0
v -5 7 -1
v -5 8 -0
v -5 8 -1
v -5 9 -0
v -5 9 -1
v -5 10 -0
v -5 10 -1
v -5 11 -0
v -5 11 -1
v -5 12 -0
v -5 12 -1
v -5 13 -0
v -5 13 -1
v -5 14 1
v -5 14 -0
v -5 14 -1
v -5 14 -2
v -5 20 5
v -5 20 -5
v -5 21 5
v -5 21 -5
v -4 1 4
v -4 1 1
v -4 1 -0
v -4 1 -1
v -4 1 -2
v -4 1 -4
v -4 2 4
v -4 2 1
v -4 2 -0
v -4 2 -1
v -4 2 -2
v -4 2 -4
v -4 13 4
v -4 13 1
v -4 13 -0
v -4 13 -1
v -4 13 -2
v -4 13 -4
v -4 14 4
v -4 14 1
v -4 14 -0
v -4 14 -1
v -4 14 -2
v -4 14 -4
v -4 21 4
v -4 21 -4
v -4 22 4
v -4 22 -4
v -3 2 3
v -3 2 -3
v -3 3 3
v -3 3 -3
v -3 12 3
v -3 12 1
v -3 12 -1
v -3 12 -3
v -3 13 3
v -3 13 1
v -3 13 -1
v -3 13 -3
v -3 14 3
v -3 14 1
v -3 14 -1
v -3 14 -3
v -3 15 1
v -3 15 -1
v -3 16 2
v -3 16 -2
v -3 19 2
v -3 19 -2
v -3 20 3
v -3 20 -3
v -3 22 3
v -3 22 -3
v -3 23 3
v -3 23 -3
v -2 3 2
v -2 3 1
v -2 3 -1
v -2 3 -2
v -2 12 2
v -2 12 1
v -2 12 -1
v -2 12 -2
v -2 14 1
v -2 14 -1
v -2 15 1
v -2 15 -1
v -2 16 2
v -2 16 -2
v -2 19 2
v -2 19 -2
v -2 23 2
v -2 23 -2
v -2 24 2
v -2 24 -2
v -1 12 4
v -1 12 3
v -1 12 -3
v -1 12 -4
v -1 13 4
v -1 13 3
v -1 13 -3
v -1 13 -4
v -1 14 4
v -1 14 3
v -1 14 -3
v -1 14 -4
v -1 15 4
v -1 15 3
v -1 15 -3
v -1 15 -4
v -1 24 1
v -1 24 -1
v -1 25 1
v -1 25 -1
v 1 3 2
v 1 3 1
v 1 3 -1
v 1 3 -2
v 1 12 2
v 1 12 1
v 1 12 -1
v 1 12 -2
v 2 16 3
v 2 16 2
v 2 16 -2
v 2 16 -3
v 2 19 3
v 2 19 2
v 2 19 -2
v 2 19 -3
v -4 2 1
v -4 2 -2
v -4 3 -0
v -4 3 -1
v -4 4 -0
v -4 4 -1
v -4 5 -0
v -4 5 -1
v -4 6 -0
v -4 6 -1
v -4 7 -0
v -4 7 -1
v -4 8 -0
v -4 8 -1
v -4 9 -0
v -4 9 -1
v -4 10 -0
v -4 10 -1
v -4 11 -0
v -4 11 -1
v -4 12 1
v -4 12 -0
v -4 12 -1
v -4 13 -1
v -4 13 -2
v -2 16 3
v -2 16 2
v -2 16 -2
v -2 16 -3
v -2 19 3
v -2 19 2
v -2 19 -2
v -2 19 -3
v -1 3 2
v -1 3 1
v -1 3 -1
v -1 3 -2
v -1 12 2
v -1 12 1
v -1 12 -1
v -1 12 -2
v 1 12 4
v 1 12 3
v 1 12 -3
v 1 12 -4
v 1 13 4
v 1 13 3
v 1 13 -3
v 1 13 -4
v 1 14 4
v 1 14 3
v 1 14 -3
v 1 14 -4
v 1 15 4
v 1 15 3
v 1 15 -3
v 1 15 -4
v 1 24 1
v 1 24 -1
v 1 25 1
v 1 25 -1
v 2 3 2
v 2 3 1
v 2 3 -1
v 2 3 -2
v 2 12 2
v 2 12 1
v 2 12 -1
v 2 12 -2
v 2 16 2
v 2 16 -2
v 2 19 2
v 2 19 -2
v 2 23 2
v 2 23 -2
v 2 24 2
v 2 24 -2
v 3 2 3
v 3 2 -3
v 3 3 3
v 3 3 -3
v 3 12 3
v 3 12 1
v 3 12 -1
v 3 12 -3
v 3 13 3
v 3 13 1
v 3 13 -1
v 3 13 -3
v 3 14 3
v 3 14 1
v 3 14 -1
v 3 14 -3
v 3 15 1
v 3 15 -1
v 3 16 2
v 3 16 -2
v 3 19 2
v 3 19 -2
v 3 20 3
v 3 20 -3
v 3 22 3
v 3 22 -3
v 3 23 3
v 3 23 -3
v 4 1 4
v 4 1 -4
v 4 2 4
v 4 2 -4
v 4 12 1
v 4 12 -1
v 4 13 4
v 4 13 1
v 4 13 -1
v 4 13 -4
v 4 14 4
v 4 14 1
v 4 14 -1
v 4 14 -4
v 4 15 1
v 4 15 -1
v 4 21 4
v 4 21 -4
v 4 22 4
v 4 22 -4
v 5 0 5
v 5 0 -5
v 5 1 5
v 5 1 -5
v 5 20 5
v 5 20 -5
v 5 21 5
v 5 21 -5
v -5 0 5
v -5 1 5
v -5 20 5
v -5 21 5
v 5 0 5
v 5 1 5
v 5 20 5
v 5 21 5
v -4 1 4
v -4 2 4
v -4 13 4
v -4 14 4
v -4 21 4
v -4 22 4
v -1 12 4
v -1 13 4
v -1 14 4
v -1 15 4
v 1 12 4
v 1 13 4
v 1 14 4
v 1 15 4
v 4 1 4
v 4 2 4
v 4 13 4
v 4 14 4
v 4 21 4
v 4 22 4
v -3 2 3
v -3 3 3
v -3 12 3
v -3 13 3
v -3 14 3
v -3 20 3
v -3 22 3
v -3 23 3
v -2 16 3
v -2 19 3
v -1 12 3
v -1 13 3
v -1 14 3
v -1 15 3
v 1 12 3
v 1 13 3
v 1 14 3
v 1 15 3
v 2 16 3
v 2 19 3
v 3 2 3
v 3 3 3
v 3 12 3
v 3 13 3
v 3 14 3
v 3 20 3
v 3 22 3
v 3 23 3
v -2 3 2
v -2 12 2
v -2 16 2
v -2 19 2
v -2 23 2
v -2 24 2
v -1 3 2
v -1 12 2
v 1 3 2
v 1 12 2
v 2 3 2
v 2 12 2
v 2 16 2
v 2 19 2
v 2 23 2
v 2 24 2
v -5 1 1
v -5 14 1
v -4 1 1
v -4 2 1
v -4 12 1
v -4 13 1
v -4 14 1
v -3 12 1
v -3 13 1
v -1 24 1
v -1 25 1
v 1 24 1
v 1 25 1
v 3 12 1
v 3 13 1
v 3 14 1
v 3 15 1
v 4 12 1
v 4 13 1
v 4 14 1
v 4 15 1
v -5 1 -1
v -5 2 -1
v -5 3 -1
v -5 4 -1
v -5 5 -1
v -5 6 -1
v -5 7 -1
v -5 8 -1
v -5 9 -1
v -5 10 -1
v -5 11 -1
v -5 12 -1
v -5 13 -1
v -5 14 -1
v -4 1 -1
v -4 2 -1
v -4 3 -1
v -4 4 -1
v -4 5 -1
v -4 6 -1
v -4 7 -1
v -4 8 -1
v -4 9 -1
v -4 10 -1
v -4 11 -1
v -4 12 -1
v -4 13 -1
v -4 14 -1
v -3 14 -1
v -3 15 -1
v -2 3 -1
v -2 12 -1
v -2 14 -1
v -2 15 -1
v -1 3 -1
v -1 12 -1
v 1 3 -1
v 1 12 -1
v 2 3 -1
v 2 12 -1
v -3 16 -2
v -3 19 -2
v -2 16 -2
v -2 19 -2
v 2 16 -2
v 2 19 -2
v 3 16 -2
v 3 19 -2
v -3 16 2
v -3 19 2
v -2 16 2
v -2 19 2
v 2 16 2
v 2 19 2
v 3 16 2
v 3 19 2
v -3 14 1
v -3 15 1
v -2 3 1
v -2 12 1
v -2 14 1
v -2 15 1
v -1 3 1
v -1 12 1
v 1 3 1
v 1 12 1
v 2 3 1
v 2 12 1
v -5 1 -0
v -5 2 -0
v -5 3 -0
v -5 4 -0
v -5 5 -0
v -5 6 -0
v -5 7 -0
v -5 8 -0
v -5 9 -0
v -5 10 -0
v -5 11 -0
v -5 12 -0
v -5 13 -0
v -5 14 -0
v -4 1 -0
v -4 2 -0
v -4 3 -0
v -4 4 -0
v -4 5 -0
v -4 6 -0
v -4 7 -0
v -4 8 -0
v -4 9 -0
v -4 10 -0
v -4 11 -0
v -4 12 -0
v -4 13 -0
v -4 14 -0
v -4 12 -1
v -4 13 -1
v -3 12 -1
v -3 13 -1
v -1 24 -1
v -1 25 -1
v 1 24 -1
v 1 25 -1
v 3 12 -1
v 3 13 -1
v 3 14 -1
v 3 15 -1
v 4 12 -1
v 4 13 -1
v 4 14 -1
v 4 15 -1
v -5 1 -2
v -5 14 -2
v -4 1 -2
v -4 2 -2
v -4 13 -2
v -4 14 -2
v -2 3 -2
v -2 12 -2
v -2 16 -2
v -2 19 -2
v -2 23 -2
v -2 24 -2
v -1 3 -2
v -1 12 -2
v 1 3 -2
v 1 12 -2
v 2 3 -2
v 2 12 -2
v 2 16 -2
v 2 19 -2
v 2 23 -2
v 2 24 -2
v -3 2 -3
v -3 3 -3
v -3 12 -3
v -3 13 -3
v -3 14 -3
v -3 20 -3
v -3 22 -3
v -3 23 -3
v -2 16 -3
v -2 19 -3
v -1 12 -3
v -1 13 -3
v -1 14 -3
v -1 15 -3
v 1 12 -3
v 1 13 -3
v 1 14 -3
v 1 15 -3
v 2 16 -3
v 2 19 -3
v 3 2 -3
v 3 3 -3
v 3 12 -3
v 3 13 -3
v 3 14 -3
v 3 20 -3
v 3 22 -3
v 3 23 -3
v -4 1 -4
v -4 2 -4
v -4 13 -4
v -4 14 -4
v -4 21 -4
v -4 22 -4
v -1 12 -4
v -1 13 -4
v -1 14 -4
v -1 15 -4
v 1 12 -4
v 1 13 -4
v 1 14 -4
v 1 15 -4
v 4 1 -4
v 4 2 -4
v 4 13 -4
v 4 14 -4
v 4 21 -4
v 4 22 -4
v -5 0 -5
v -5 1 -5
v -5 20 -5
v -5 21 -5
v 5 0 -5
v 5 1 -5
v 5 20 -5
v 5 21 -5
v -5 0 5
v 5 0 5
v -4 0 4
v 4 0 4
v -4 0 -4
v 4 0 -4
v -5 0 -5
v 5 0 -5
v -5 2 -0
v -4 2 -0
v -5 2 -1
v -4 2 -1
v -5 4 -0
v -4 4 -0
v -5 4 -1
v -4 4 -1
v -5 6 -0
v -4 6 -0
v -5 6 -1
v -4 6 -1
v -5 8 -0
v -4 8 -0
v -5 8 -1
v -4 8 -1
v -5 10 -0
v -4 10 -0
v -5 10 -1
v -4 10 -1
v -1 12 4
v 1 12 4
v -3 12 3
v -1 12 3
v 1 12 3
v 3 12 3
v -2 12 2
v -1 12 2
v 1 12 2
v 2 12 2
v -4 12 1
v -3 12 1
v -2 12 1
v -1 12 1
v 1 12 1
v 2 12 1
v 3 12 1
v 4 12 1
v -5 12 -0
v -4 12 -0
v -5 12 -1
v -4 12 -1
v -3 12 -1
v -2 12 -1
v -1 12 -1
v 1 12 -1
v 2 12 -1
v 3 12 -1
v 4 12 -1
v -2 12 -2
v -1 12 -2
v 1 12 -2
v 2 12 -2
v -3 12 -3
v -1 12 -3
v 1 12 -3
v 3 12 -3
v -1 12 -4
v 1 12 -4
v -4 13 4
v -1 13 4
v 1 13 4
v 4 13 4
v -3 13 3
v -1 13 3
v 1 13 3
v 3 13 3
v -4 13 1
v -3 13 1
v 3 13 1
v 4 13 1
v -4 13 -1
v -3 13 -1
v 3 13 -1
v 4 13 -1
v -4 13 -2
v -3 13 -3
v -1 13 -3
v 1 13 -3
v 3 13 -3
v -4 13 -4
v -1 13 -4
v 1 13 -4
v 4 13 -4
v -3 15 1
v -2 15 1
v -3 15 -1
v -2 15 -1
v -2 19 3
v 2 19 3
v -3 19 2
v -2 19 2
v 2 19 2
v 3 19 2
v -3 19 -2
v -2 19 -2
v 2 19 -2
v 3 19 -2
v -2 19 -3
v 2 19 -3
v -5 20 5
v 5 20 5
v -3 20 3
v 3 20 3
v -3 20 -3
v 3 20 -3
v -5 20 -5
v 5 20 -5
v -5 1 5
v 5 1 5
v -4 1 4
v 4 1 4
v -5 1 1
v -4 1 1
v -5 1 -0
v -4 1 -0
v -5 1 -1
v -4 1 -1
v -5 1 -2
v -4 1 -2
v -4 1 -4
v 4 1 -4
v -5 1 -5
v 5 1 -5
v -4 2 4
v 4 2 4
v -3 2 3
v 3 2 3
v -4 2 1
v -4 2 -2
v -3 2 -3
v 3 2 -3
v -4 2 -4
v 4 2 -4
v -3 3 3
v 3 3 3
v -2 3 2
v -1 3 2
v 1 3 2
v 2 3 2
v -2 3 1
v -1 3 1
v 1 3 1
v 2 3 1
v -5 3 -0
v -4 3 -0
v -5 3 -1
v -4 3 -1
v -2 3 -1
v -1 3 -1
v 1 3 -1
v 2 3 -1
v -2 3 -2
v -1 3 -2
v 1 3 -2
v 2 3 -2
v -3 3 -3
v 3 3 -3
v -5 5 -0
v -4 5 -0
v -5 5 -1
v -4 5 -1
v -5 7 -0
v -4 7 -0
v -5 7 -1
v -4 7 -1
v -5 9 -0
v -4 9 -0
v -5 9 -1
v -4 9 -1
v -5 11 -0
v -4 11 -0
v -5 11 -1
v -4 11 -1
v -5 13 -0
v -4 13 -0
v -5 13 -1
v -4 13 -1
v -4 14 4
v -1 14 4
v 1 14 4
v 4 14 4
v -3 14 3
v -1 14 3
v 1 14 3
v 3 14 3
v -5 14 1
v -4 14 1
v -3 14 1
v -2 14 1
v 3 14 1
v 4 14 1
v -5 14 -0
v -4 14 -0
v -5 14 -1
v -4 14 -1
v -3 14 -1
v -2 14 -1
v 3 14 -1
v 4 14 -1
v -5 14 -2
v -4 14 -2
v -3 14 -3
v -1 14 -3
v 1 14 -3
v 3 14 -3
v -4 14 -4
v -1 14 -4
v 1 14 -4
v 4 14 -4
v -1 15 4
v 1 15 4
v -1 15 3
v 1 15 3
v 3 15 1
v 4 15 1
v 3 15 -1
v 4 15 -1
v -1 15 -3
v 1 15 -3
v -1 15 -4
v 1 15 -4
v -2 16 3
v 2 16 3
v -3 16 2
v -2 16 2
v 2 16 2
v 3 16 2
v -3 16 -2
v -2 16 -2
v 2 16 -2
v 3 16 -2
v -2 16 -3
v 2 16 -3
v -5 21 5
v 5 21 5
v -4 21 4
v 4 21 4
v -4 21 -4
v 4 21 -4
v -5 21 -5
v 5 21 -5
v -4 22 4
v 4 22 4
v -3 22 3
v 3 22 3
v -3 22 -3
v 3 22 -3
v -4 22 -4
v 4 22 -4
v -3 23 3
v 3 23 3
v -2 23 2
v 2 23 2
v -2 23 -2
v 2 23 -2
v -3 23 -3
v 3 23 -3
v -2 24 2
v 2 24 2
v -1 24 1
v 1 24 1
v -1 24 -1
v 1 24 -1
v -2 24 -2
v 2 24 -2
v -1 25 1
v 1 25 1
v -1 25 -1
v 1 25 -1

# faces
f 3/1/1 2/1/1 1/1/1
f 4/1/1 2/1/1 3/1/1
f 5/1/1 2/1/1 4/1/1
f 6/1/1 2/1/1 5/1/1
f 7/1/1 2/1/1 6/1/1
f 8/1/1 2/1/1 7/1/1
f 9/6/1 5/6/1 4/6/1
f 10/6/1 7/6/1 6/6/1
f 11/6/1 9/6/1 4/6/1
f 11/6/1 10/6/1 9/6/1
f 12/6/1 7/6/1 10/6/1
f 12/6/1 10/6/1 11/6/1
f 13/6/1 11/6/1 4/6/1
f 14/6/1 7/6/1 12/6/1
f 15/6/1 13/6/1 4/6/1
f 15/6/1 14/6/1 13/6/1
f 16/6/1 7/6/1 14/6/1
f 16/6/1 14/6/1 15/6/1
f 17/6/1 15/6/1 4/6/1
f 18/6/1 7/6/1 16/6/1
f 19/6/1 17/6/1 4/6/1
f 19/6/1 18/6/1 17/6/1
f 20/6/1 7/6/1 18/6/1
f 20/6/1 18/6/1 19/6/1
f 21/6/1 19/6/1 4/6/1
f 22/6/1 7/6/1 20/6/1
f 23/6/1 21/6/1 4/6/1
f 23/6/1 22/6/1 21/6/1
f 24/6/1 7/6/1 22/6/1
f 24/6/1 22/6/1 23/6/1
f 25/6/1 23/6/1 4/6/1
f 26/6/1 7/6/1 24/6/1
f 27/6/1 25/6/1 4/6/1
f 27/6/1 26/6/1 25/6/1
f 28/6/1 7/6/1 26/6/1
f 28/6/1 26/6/1 27/6/1
f 29/6/1 27/6/1 4/6/1
f 30/6/1 7/6/1 28/6/1
f 31/6/1 29/6/1 4/6/1
f 31/6/1 30/6/1 29/6/1
f 32/6/1 7/6/1 30/6/1
f 32/6/1 30/6/1 31/6/1
f 33/6/1 31/6/1 4/6/1
f 34/6/1 31/6/1 33/6/1
f 35/6/1 7/6/1 32/6/1
f 36/6/1 7/6/1 35/6/1
f 39/1/1 38/1/1 37/1/1
f 40/1/1 38/1/1 39/1/1
f 47/1/1 42/1/1 41/1/1
f 48/1/1 42/1/1 47/1/1
f 49/1/1 44/1/1 43/1/1
f 50/1/1 44/1/1 49/1/1
f 51/1/1 46/1/1 45/1/1
f 52/1/1 46/1/1 51/1/1
f 59/1/1 54/1/1 53/1/1
f 60/1/1 54/1/1 59/1/1
f 61/1/1 56/1/1 55/1/1
f 62/1/1 56/1/1 61/1/1
f 63/1/1 58/1/1 57/1/1
f 64/1/1 58/1/1 63/1/1
f 67/1/1 66/1/1 65/1/1
f 68/1/1 66/1/1 67/1/1
f 71/1/1 70/1/1 69/1/1
f 72/1/1 70/1/1 71/1/1
f 77/5/1 74/5/1 73/5/1
f 78/5/1 74/5/1 77/5/1
f 79/5/1 76/5/1 75/5/1
f 80/5/1 76/5/1 79/5/1
f 85/6/1 82/6/1 81/6/1
f 86/6/1 84/6/1 83/6/1
f 87/6/1 85/6/1 81/6/1
f 87/6/1 86/6/1 85/6/1
f 88/6/1 84/6/1 86/6/1
f 88/6/1 86/6/1 87/6/1
f 89/6/1 87/6/1 81/6/1
f 90/6/1 84/6/1 88/6/1
f 91/6/1 89/6/1 81/6/1
f 91/6/1 90/6/1 89/6/1
f 92/6/1 84/6/1 90/6/1
f 92/6/1 90/6/1 91/6/1
f 95/1/1 94/1/1 93/1/1
f 96/1/1 94/1/1 95/1/1
f 101/6/1 98/6/1 97/6/1
f 102/6/1 98/6/1 101/6/1
f 103/6/1 100/6/1 99/6/1
f 104/6/1 100/6/1 103/6/1
f 107/2/1 106/2/1 105/2/1
f 108/2/1 106/2/1 107/2/1
f 111/2/1 110/2/1 109/2/1
f 112/2/1 110/2/1 111/2/1
f 115/1/1 114/1/1 113/1/1
f 116/1/1 114/1/1 115/1/1
f 121/1/1 118/1/1 117/1/1
f 122/1/1 118/1/1 121/1/1
f 123/1/1 120/1/1 119/1/1
f 124/1/1 120/1/1 123/1/1
f 129/1/1 126/1/1 125/1/1
f 130/1/1 126/1/1 129/1/1
f 131/1/1 128/1/1 127/1/1
f 132/1/1 128/1/1 131/1/1
f 135/1/1 134/1/1 133/1/1
f 136/1/1 134/1/1 135/1/1
f 141/6/1 138/6/1 137/6/1
f 142/6/1 138/6/1 141/6/1
f 143/6/1 140/6/1 139/6/1
f 144/6/1 140/6/1 143/6/1
f 149/6/1 146/6/1 145/6/1
f 150/6/1 146/6/1 149/6/1
f 151/6/1 148/6/1 147/6/1
f 152/6/1 148/6/1 151/6/1
f 153/6/2 154/6/2 155/6/2
f 155/6/2 154/6/2 156/6/2
f 153/6/2 155/6/2 157/6/2
f 156/6/2 154/6/2 158/6/2
f 153/6/2 157/6/2 159/6/2
f 157/6/2 158/6/2 159/6/2
f 158/6/2 154/6/2 160/6/2
f 159/6/2 158/6/2 160/6/2
f 153/6/2 159/6/2 161/6/2
f 160/6/2 154/6/2 162/6/2
f 153/6/2 161/6/2 163/6/2
f 161/6/2 162/6/2 163/6/2
f 162/6/2 154/6/2 164/6/2
f 163/6/2 162/6/2 164/6/2
f 153/6/2 163/6/2 165/6/2
f 164/6/2 154/6/2 166/6/2
f 153/6/2 165/6/2 167/6/2
f 165/6/2 166/6/2 167/6/2
f 166/6/2 154/6/2 168/6/2
f 167/6/2 166/6/2 168/6/2
f 153/6/2 167/6/2 169/6/2
f 168/6/2 154/6/2 170/6/2
f 153/6/2 169/6/2 171/6/2
f 169/6/2 170/6/2 171/6/2
f 170/6/2 154/6/2 172/6/2
f 171/6/2 170/6/2 172/6/2
f 153/6/2 171/6/2 173/6/2
f 173/6/2 171/6/2 174/6/2
f 172/6/2 154/6/2 175/6/2
f 175/6/2 154/6/2 176/6/2
f 176/6/2 154/6/2 177/6/2
f 178/6/2 179/6/2 182/6/2
f 182/6/2 179/6/2 183/6/2
f 180/6/2 181/6/2 184/6/2
f 184/6/2 181/6/2 185/6/2
f 186/6/2 187/6/2 190/6/2
f 190/6/2 187/6/2 191/6/2
f 188/6/2 189/6/2 192/6/2
f 192/6/2 189/6/2 193/6/2
f 194/1/2 195/1/2 198/1/2
f 198/1/2 195/1/2 199/1/2
f 196/1/2 197/1/2 200/1/2
f 200/1/2 197/1/2 201/1/2
f 202/1/2 203/1/2 206/1/2
f 206/1/2 203/1/2 207/1/2
f 204/1/2 205/1/2 208/1/2
f 208/1/2 205/1/2 209/1/2
f 210/1/2 211/1/2 212/1/2
f 212/1/2 211/1/2 213/1/2
f 214/6/2 215/6/2 218/6/2
f 218/6/2 215/6/2 219/6/2
f 216/6/2 217/6/2 220/6/2
f 220/6/2 217/6/2 221/6/2
f 222/2/2 223/2/2 224/2/2
f 224/2/2 223/2/2 225/2/2
f 226/1/2 227/1/2 228/1/2
f 228/1/2 227/1/2 229/1/2
f 230/1/2 231/1/2 232/1/2
f 232/1/2 231/1/2 233/1/2
f 234/5/2 235/5/2 238/5/2
f 238/5/2 235/5/2 239/5/2
f 236/5/2 237/5/2 240/5/2
f 240/5/2 237/5/2 241/5/2
f 242/6/2 243/6/2 246/6/2
f 244/6/2 245/6/2 247/6/2
f 242/6/2 246/6/2 248/6/2
f 246/6/2 247/6/2 248/6/2
f 247/6/2 245/6/2 249/6/2
f 248/6/2 247/6/2 249/6/2
f 242/6/2 248/6/2 250/6/2
f 249/6/2 245/6/2 251/6/2
f 242/6/2 250/6/2 252/6/2
f 250/6/2 251/6/2 252/6/2
f 251/6/2 245/6/2 253/6/2
f 252/6/2 251/6/2 253/6/2
f 254/1/2 255/1/2 256/1/2
f 256/1/2 255/1/2 257/1/2
f 258/1/2 259/1/2 260/1/2
f 260/1/2 259/1/2 261/1/2
f 262/1/2 263/1/2 265/1/2
f 265/1/2 263/1/2 266/1/2
f 264/1/2 265/1/2 268/1/2
f 266/1/2 267/1/2 268/1/2
f 265/1/2 266/1/2 268/1/2
f 268/1/2 267/1/2 269/1/2
f 269/1/2 267/1/2 270/1/2
f 270/1/2 267/1/2 271/1/2
f 269/1/2 270/1/2 272/1/2
f 272/1/2 270/1/2 273/1/2
f 274/1/2 275/1/2 276/1/2
f 276/1/2 275/1/2 277/1/2
f 278/1/2 279/1/2 280/1/2
f 280/1/2 279/1/2 281/1/2
f 282/1/2 283/1/2 284/1/2
f 284/1/2 283/1/2 285/1/2
f 290/1/3 287/1/3 286/1/3
f 291/1/3 287/1/3 290/1/3
f 292/1/3 289/1/3 288/1/3
f 293/1/3 289/1/3 292/1/3
f 301/1/3 297/1/3 296/1/3
f 302/1/3 297/1/3 301/1/3
f 304/1/3 301/1/3 300/1/3
f 304/1/3 303/1/3 302/1/3
f 304/1/3 302/1/3 301/1/3
f 305/1/3 303/1/3 304/1/3
f 306/1/3 303/1/3 305/1/3
f 307/1/3 303/1/3 306/1/3
f 308/1/3 295/1/3 294/1/3
f 309/1/3 295/1/3 308/1/3
f 310/1/3 306/1/3 305/1/3
f 311/1/3 306/1/3 310/1/3
f 312/1/3 299/1/3 298/1/3
f 313/1/3 299/1/3 312/1/3
f 322/6/3 319/6/3 318/6/3
f 323/6/3 319/6/3 322/6/3
f 324/5/3 317/5/3 316/5/3
f 325/5/3 317/5/3 324/5/3
f 326/6/3 322/6/3 318/6/3
f 327/6/3 322/6/3 326/6/3
f 331/6/3 322/6/3 327/6/3
f 332/6/3 322/6/3 331/6/3
f 332/6/3 331/6/3 330/6/3
f 333/6/3 319/6/3 323/6/3
f 334/1/3 315/1/3 314/1/3
f 335/1/3 315/1/3 334/1/3
f 336/5/3 329/5/3 328/5/3
f 337/5/3 329/5/3 336/5/3
f 338/6/3 333/6/3 332/6/3
f 338/6/3 332/6/3 330/6/3
f 339/6/3 319/6/3 333/6/3
f 339/6/3 333/6/3 338/6/3
f 340/1/3 321/1/3 320/1/3
f 341/1/3 321/1/3 340/1/3
f 348/6/3 343/6/3 342/6/3
f 349/6/3 343/6/3 348/6/3
f 352/6/3 351/6/3 350/6/3
f 353/6/3 351/6/3 352/6/3
f 354/2/3 345/2/3 344/2/3
f 355/2/3 345/2/3 354/2/3
f 356/1/3 347/1/3 346/1/3
f 357/1/3 347/1/3 356/1/3
f 360/6/3 359/6/3 358/6/3
f 361/6/3 359/6/3 360/6/3
f 362/6/3 359/6/3 361/6/3
f 363/6/3 359/6/3 362/6/3
f 364/6/3 359/6/3 363/6/3
f 365/5/3 363/5/3 362/5/3
f 366/5/3 363/5/3 365/5/3
f 369/1/3 368/1/3 367/1/3
f 370/1/3 368/1/3 369/1/3
f 375/1/3 372/1/3 371/1/3
f 376/1/3 372/1/3 375/1/3
f 377/1/3 374/1/3 373/1/3
f 378/1/3 374/1/3 377/1/3
f 393/6/3 380/6/3 379/6/3
f 394/6/3 380/6/3 393/6/3
f 395/6/3 382/6/3 381/6/3
f 396/6/3 382/6/3 395/6/3
f 397/6/3 384/6/3 383/6/3
f 398/6/3 384/6/3 397/6/3
f 399/6/3 386/6/3 385/6/3
f 400/6/3 386/6/3 399/6/3
f 401/6/3 388/6/3 387/6/3
f 402/6/3 388/6/3 401/6/3
f 403/6/3 390/6/3 389/6/3
f 404/6/3 390/6/3 403/6/3
f 405/6/3 392/6/3 391/6/3
f 406/6/3 392/6/3 405/6/3
f 411/6/3 408/6/3 407/6/3
f 412/6/3 408/6/3 411/6/3
f 413/6/3 410/6/3 409/6/3
f 414/6/3 410/6/3 413/6/3
f 417/6/3 416/6/3 415/6/3
f 418/6/3 416/6/3 417/6/3
f 421/6/3 420/6/3 419/6/3
f 422/6/3 420/6/3 421/6/3
f 425/6/3 424/6/3 423/6/3
f 426/6/3 424/6/3 425/6/3
f 427/6/4 428/6/4 429/6/4
f 429/6/4 428/6/4 430/6/4
f 431/6/4 432/6/4 433/6/4
f 433/6/4 432/6/4 434/6/4
f 435/6/4 436/6/4 439/6/4
f 439/6/4 436/6/4 440/6/4
f 437/6/4 438/6/4 441/6/4
f 441/6/4 438/6/4 442/6/4
f 443/6/4 444/6/4 445/6/4
f 445/6/4 444/6/4 446/6/4
f 447/6/4 448/6/4 461/6/4
f 461/6/4 448/6/4 462/6/4
f 449/6/4 450/6/4 463/6/4
f 463/6/4 450/6/4 464/6/4
f 451/6/4 452/6/4 465/6/4
f 465/6/4 452/6/4 466/6/4
f 453/6/4 454/6/4 467/6/4
f 467/6/4 454/6/4 468/6/4
f 455/6/4 456/6/4 469/6/4
f 469/6/4 456/6/4 470/6/4
f 457/6/4 458/6/4 471/6/4
f 471/6/4 458/6/4 472/6/4
f 459/6/4 460/6/4 473/6/4
f 473/6/4 460/6/4 474/6/4
f 475/5/4 476/5/4 477/5/4
f 477/5/4 476/5/4 478/5/4
f 479/1/4 480/1/4 481/1/4
f 481/1/4 480/1/4 482/1/4
f 483/1/4 484/1/4 487/1/4
f 487/1/4 484/1/4 488/1/4
f 485/1/4 486/1/4 489/1/4
f 489/1/4 486/1/4 490/1/4
f 491/6/4 492/6/4 493/6/4
f 493/6/4 492/6/4 494/6/4
f 494/6/4 492/6/4 495/6/4
f 495/6/4 492/6/4 496/6/4
f 497/6/4 498/6/4 503/6/4
f 503/6/4 498/6/4 504/6/4
f 505/6/4 506/6/4 507/6/4
f 507/6/4 506/6/4 508/6/4
f 499/2/4 500/2/4 509/2/4
f 509/2/4 500/2/4 510/2/4
f 501/1/4 502/1/4 511/1/4
f 511/1/4 502/1/4 512/1/4
f 517/6/4 518/6/4 521/6/4
f 521/6/4 518/6/4 522/6/4
f 515/5/4 516/5/4 523/5/4
f 523/5/4 516/5/4 524/5/4
f 517/6/4 521/6/4 525/6/4
f 525/6/4 521/6/4 526/6/4
f 526/6/4 521/6/4 530/6/4
f 530/6/4 521/6/4 531/6/4
f 529/6/4 530/6/4 531/6/4
f 522/6/4 518/6/4 532/6/4
f 513/1/4 514/1/4 533/1/4
f 533/1/4 514/1/4 534/1/4
f 527/5/4 528/5/4 535/5/4
f 535/5/4 528/5/4 536/5/4
f 531/6/4 532/6/4 537/6/4
f 529/6/4 531/6/4 537/6/4
f 532/6/4 518/6/4 538/6/4
f 537/6/4 532/6/4 538/6/4
f 519/1/4 520/1/4 539/1/4
f 539/1/4 520/1/4 540/1/4
f 543/1/4 544/1/4 548/1/4
f 548/1/4 544/1/4 549/1/4
f 547/1/4 548/1/4 551/1/4
f 549/1/4 550/1/4 551/1/4
f 548/1/4 549/1/4 551/1/4
f 551/1/4 550/1/4 552/1/4
f 552/1/4 550/1/4 553/1/4
f 553/1/4 550/1/4 554/1/4
f 541/1/4 542/1/4 555/1/4
f 555/1/4 542/1/4 556/1/4
f 552/1/4 553/1/4 557/1/4
f 557/1/4 553/1/4 558/1/4
f 545/1/4 546/1/4 559/1/4
f 559/1/4 546/1/4 560/1/4
f 561/1/4 562/1/4 565/1/4
f 565/1/4 562/1/4 566/1/4
f 563/1/4 564/1/4 567/1/4
f 567/1/4 564/1/4 568/1/4
f 571/1/5 570/1/5 569/1/5
f 572/1/5 570/1/5 571/1/5
f 573/1/5 571/1/5 569/1/5
f 573/3/5 572/3/5 571/3/5
f 574/1/5 570/1/5 572/1/5
f 574/3/5 572/3/5 573/3/5
f 575/1/5 573/1/5 569/1/5
f 575/1/5 574/1/5 573/1/5
f 576/1/5 570/1/5 574/1/5
f 576/1/5 574/1/5 575/1/5
f 579/6/5 578/6/5 577/6/5
f 580/6/5 578/6/5 579/6/5
f 583/6/5 582/6/5 581/6/5
f 584/6/5 582/6/5 583/6/5
f 587/6/5 586/6/5 585/6/5
f 588/6/5 586/6/5 587/6/5
f 591/6/5 590/6/5 589/6/5
f 592/6/5 590/6/5 591/6/5
f 595/6/5 594/6/5 593/6/5
f 596/6/5 594/6/5 595/6/5
f 600/1/5 598/1/5 597/1/5
f 601/1/5 598/1/5 600/1/5
f 603/5/5 600/5/5 599/5/5
f 603/5/5 602/5/5 601/5/5
f 603/5/5 601/5/5 600/5/5
f 604/5/5 602/5/5 603/5/5
f 605/5/5 602/5/5 604/5/5
f 606/5/5 602/5/5 605/5/5
f 608/5/5 603/5/5 599/5/5
f 609/5/5 603/5/5 608/5/5
f 610/5/5 605/5/5 604/5/5
f 611/5/5 605/5/5 610/5/5
f 612/5/5 602/5/5 606/5/5
f 613/5/5 602/5/5 612/5/5
f 616/5/5 609/5/5 608/5/5
f 616/5/5 611/5/5 610/5/5
f 616/5/5 613/5/5 612/5/5
f 616/5/5 612/5/5 611/5/5
f 616/5/5 608/5/5 607/5/5
f 616/5/5 610/5/5 609/5/5
f 617/6/5 616/6/5 615/6/5
f 618/5/5 613/5/5 616/5/5
f 618/6/5 616/6/5 617/6/5
f 619/5/5 613/5/5 618/5/5
f 620/5/5 613/5/5 619/5/5
f 621/5/5 613/5/5 620/5/5
f 622/5/5 613/5/5 621/5/5
f 623/5/5 613/5/5 622/5/5
f 624/1/5 614/1/5 613/1/5
f 624/5/5 613/5/5 623/5/5
f 625/1/5 614/1/5 624/1/5
f 626/5/5 620/5/5 619/5/5
f 627/5/5 622/5/5 621/5/5
f 628/5/5 622/5/5 627/5/5
f 629/5/5 624/5/5 623/5/5
f 630/5/5 628/5/5 627/5/5
f 630/5/5 629/5/5 628/5/5
f 630/5/5 626/5/5 619/5/5
f 630/5/5 627/5/5 626/5/5
f 631/5/5 629/5/5 630/5/5
f 632/5/5 629/5/5 631/5/5
f 633/5/5 624/5/5 629/5/5
f 633/5/5 629/5/5 632/5/5
f 634/1/5 632/1/5 631/1/5
f 635/1/5 632/1/5 634/1/5
f 640/1/5 637/1/5 636/1/5
f 641/1/5 637/1/5 640/1/5
f 642/1/5 639/1/5 638/1/5
f 643/1/5 639/1/5 642/1/5
f 644/1/5 640/1/5 636/1/5
f 645/1/5 640/1/5 644/1/5
f 646/1/5 639/1/5 643/1/5
f 647/1/5 639/1/5 646/1/5
f 652/1/5 649/1/5 648/1/5
f 653/1/5 649/1/5 652/1/5
f 656/1/5 651/1/5 650/1/5
f 657/1/5 654/1/5 653/1/5
f 657/1/5 653/1/5 652/1/5
f 658/1/5 654/1/5 657/1/5
f 659/1/5 656/1/5 655/1/5
f 660/1/5 651/1/5 656/1/5
f 660/1/5 656/1/5 659/1/5
f 663/6/5 662/6/5 661/6/5
f 664/6/5 662/6/5 663/6/5
f 668/6/5 666/6/5 665/6/5
f 669/6/5 666/6/5 668/6/5
f 671/6/5 668/6/5 667/6/5
f 672/6/5 668/6/5 671/6/5
f 673/6/5 670/6/5 669/6/5
f 674/6/5 670/6/5 673/6/5
f 675/6/5 673/6/5 672/6/5
f 676/6/5 673/6/5 675/6/5
f 679/1/5 678/1/5 677/1/5
f 680/1/5 678/1/5 679/1/5
f 681/1/5 679/1/5 677/1/5
f 682/1/5 678/1/5 680/1/5
f 683/1/5 681/1/5 677/1/5
f 683/1/5 682/1/5 681/1/5
f 684/1/5 678/1/5 682/1/5
f 684/1/5 682/1/5 683/1/5
f 685/1/6 686/1/6 687/1/6
f 687/1/6 686/1/6 688/1/6
f 685/1/6 687/1/6 689/1/6
f 689/1/6 687/1/6 690/1/6
f 691/1/6 692/1/6 693/1/6
f 693/1/6 692/1/6 694/1/6
f 695/1/6 696/1/6 697/1/6
f 688/1/6 686/1/6 698/1/6
f 695/1/6 697/1/6 699/1/6
f 697/1/6 698/1/6 699/1/6
f 698/1/6 686/1/6 700/1/6
f 699/1/6 698/1/6 700/1/6
f 701/1/6 702/1/6 703/1/6
f 703/1/6 702/1/6 704/1/6
f 701/1/6 703/1/6 705/1/6
f 705/1/6 703/1/6 706/1/6
f 706/1/6 703/1/6 707/1/6
f 704/1/6 702/1/6 708/1/6
f 706/1/6 707/1/6 709/1/6
f 707/1/6 708/1/6 709/1/6
f 708/1/6 702/1/6 710/1/6
f 709/1/6 708/1/6 710/1/6
f 711/1/6 712/1/6 713/1/6
f 713/1/6 712/1/6 714/1/6
f 714/1/6 712/1/6 715/1/6
f 715/1/6 712/1/6 716/1/6
f 711/1/6 713/1/6 717/1/6
f 714/1/6 715/1/6 718/1/6
f 718/1/6 715/1/6 719/1/6
f 716/1/6 712/1/6 720/1/6
f 721/6/6 722/6/6 723/6/6
f 723/6/6 722/6/6 724/6/6
f 718/1/6 719/1/6 725/1/6
f 711/1/6 717/1/6 725/1/6
f 717/1/6 718/1/6 725/1/6
f 719/1/6 720/1/6 725/1/6
f 725/1/6 720/1/6 726/1/6
f 726/1/6 720/1/6 727/1/6
f 720/1/6 712/1/6 728/1/6
f 727/1/6 720/1/6 728/1/6
f 711/1/6 725/1/6 729/1/6
f 726/1/6 727/1/6 730/1/6
f 730/1/6 727/1/6 731/1/6
f 728/1/6 712/1/6 732/1/6
f 730/1/6 731/1/6 733/1/6
f 731/1/6 732/1/6 733/1/6
f 711/1/6 729/1/6 733/1/6
f 729/1/6 730/1/6 733/1/6
f 732/1/6 712/1/6 734/1/6
f 733/1/6 732/1/6 734/1/6
f 735/6/6 736/6/6 737/6/6
f 737/6/6 736/6/6 738/6/6
f 739/6/6 740/6/6 741/6/6
f 741/6/6 740/6/6 742/6/6
f 743/6/6 744/6/6 745/6/6
f 745/6/6 744/6/6 746/6/6
f 747/6/6 748/6/6 749/6/6
f 749/6/6 748/6/6 750/6/6
f 751/6/6 752/6/6 753/6/6
f 753/6/6 752/6/6 754/6/6
f 755/1/6 756/1/6 759/1/6
f 759/1/6 756/1/6 760/1/6
f 757/1/6 758/1/6 761/1/6
f 761/1/6 758/1/6 762/1/6
f 755/1/6 759/1/6 764/1/6
f 764/1/6 759/1/6 765/1/6
f 762/1/6 758/1/6 767/1/6
f 767/1/6 758/1/6 768/1/6
f 763/6/6 764/6/6 769/6/6
f 765/1/6 766/1/6 770/1/6
f 769/6/6 764/6/6 770/6/6
f 764/1/6 765/1/6 770/1/6
f 770/1/6 766/1/6 772/1/6
f 772/1/6 766/1/6 773/1/6
f 773/1/6 766/1/6 774/1/6
f 771/6/6 772/6/6 777/6/6
f 772/1/6 773/1/6 778/1/6
f 777/6/6 772/6/6 778/6/6
f 778/1/6 773/1/6 779/1/6
f 775/1/6 776/1/6 782/1/6
f 779/1/6 780/1/6 783/1/6
f 778/1/6 779/1/6 783/1/6
f 783/1/6 780/1/6 784/1/6
f 781/1/6 782/1/6 785/1/6
f 782/1/6 776/1/6 786/1/6
f 785/1/6 782/1/6 786/1/6
f 787/1/6 788/1/6 789/1/6
f 789/1/6 788/1/6 790/1/6
f 791/1/6 792/1/6 793/1/6
f 793/1/6 792/1/6 794/1/6
f 795/1/6 796/1/6 797/1/6
f 797/1/6 796/1/6 798/1/6
f 799/6/6 800/6/6 802/6/6
f 802/6/6 800/6/6 803/6/6
f 801/6/6 802/6/6 805/6/6
f 805/6/6 802/6/6 806/6/6
f 803/6/6 804/6/6 807/6/6
f 807/6/6 804/6/6 808/6/6
f 806/6/6 807/6/6 809/6/6
f 809/6/6 807/6/6 810/6/6
f 811/1/6 812/1/6 813/1/6
f 813/1/6 812/1/6 814/1/6
f 811/1/6 813/1/6 815/1/6
f 814/1/6 812/1/6 816/1/6
f 811/1/6 815/1/6 817/1/6
f 815/1/6 816/1/6 817/1/6
f 816/1/6 812/1/6 818/1/6
f 817/1/6 816/1/6 818/1/6
f 819/1/6 820/1/6 821/1/6
f 821/1/6 820/1/6 822/1/6
f 819/1/6 821/1/6 823/1/6
f 822/1/6 820/1/6 824/1/6
f 819/1/6 823/1/6 825/1/6
f 823/1/6 824/1/6 825/1/6
f 824/1/6 820/1/6 826/1/6
f 825/1/6 824/1/6 826/1/6
f 827/1/6 828/1/6 829/1/6
f 829/1/6 828/1/6 830/1/6
f 827/1/6 829/1/6 831/1/6
f 830/1/6 828/1/6 832/1/6
f 827/1/6 831/1/6 833/1/6
f 831/1/6 832/1/6 833/1/6
f 832/1/6 828/1/6 834/1/6
f 833/1/6 832/1/6 834/1/6
f 835/1/6 836/1/6 837/1/6
f 837/1/6 836/1/6 838/1/6
f 835/1/6 837/1/6 839/1/6
f 838/1/6 836/1/6 840/1/6
f 835/1/6 839/1/6 841/1/6
f 839/1/6 840/1/6 841/1/6
f 840/1/6 836/1/6 842/1/6
f 841/1/6 840/1/6 842/1/6
f 843/1/6 844/1/6 845/1/6
f 845/1/6 844/1/6 846/1/6
